{
	"base_url": "/ssmka/api",
	"gpzu_url": "/gpzu/#/app/gpzu/card/<%= gpzuNum %>/main/view",
	"agr_url": "https://smart-predprod.mos.ru/oasi/#/app/agr/card/<%= documentId %>/common",
	"activiti_rest_url": "/activiti-rest",
	"nsi_url": "/nsi-api/v1",
	"solr_url": "/oasi-solr-rest",
	"navigation_url": "/oasi/oasi-rest/api",
	"filenet_url": "/filenet-rest/v1",
	"reporter_url": "/reporter-rest/v1"
}
