{
  "globalDependencies": {
    "angular": "github:DefinitelyTyped/DefinitelyTyped/angularjs/angular.d.ts#dc9dabe74a5be62613b17a36053097",
    "angular-mocks": "github:DefinitelyTyped/DefinitelyTyped/angularjs/angular-mocks.d.ts#dc9dabe74a5be62613b17a3605309783a12ff28a",
    "angular-resource": "github:DefinitelyTyped/DefinitelyTyped/angularjs/angular-resource.d.ts#00c03deeddaf7fe15272e87f2c13456eb01f2f15",
    "angular-cookies": "github:DefinitelyTyped/DefinitelyTyped/angularjs/angular-cookies.d.ts#dc9dabe74a5be62613b17a36053097",
    "angular-ui-bootstrap": "github:DefinitelyTyped/DefinitelyTyped/angular-ui-bootstrap/angular-ui-bootstrap.d.ts#8df97176d2f27399ffc562098409223fef6c2304",
    "angular-ui-router": "github:DefinitelyTyped/DefinitelyTyped/angular-ui-router/angular-ui-router.d.ts#41f31600a1bff1adef3c76642183b20ec97aa81e",
    "icheck": "github:DefinitelyTyped/DefinitelyTyped/icheck/icheck.d.ts#56295f5058cac7ae458540423c50ac2dcf9fc711",
    "jasmine": "github:DefinitelyTyped/DefinitelyTyped/jasmine/jasmine.d.ts#dc9dabe74a5be62613b17a3605309783a12ff28a",
    "jquery": "github:DefinitelyTyped/DefinitelyTyped/jquery/jquery.d.ts#dc9dabe74a5be62613b17a3605309783a12ff28a",
    "ng-file-upload": "github:DefinitelyTyped/DefinitelyTyped/ng-file-upload/ng-file-upload.d.ts#b14601af3fb2ad72d5048e94188a569a1838fb9c",
    "toastr": "github:DefinitelyTyped/DefinitelyTyped/toastr/toastr.d.ts#384a53f595cdba08d1398902e53c6901700ec459",
    "base64": "github:aquavit/DefinitelyTyped/base64/base64.d.ts#1eb24daf3da36ee1257a8b59eaf93d57a4454e77",
    "angular-touchspin": "github:DefinitelyTyped/DefinitelyTyped/angular-touchspin/angular-touchspin.d.ts#7de6c3dd94feaeb21f20054b9f30d5dabc5efabd",
    "ngstorage": "github:DefinitelyTyped/DefinitelyTyped/ngstorage/ngstorage.d.ts#ae78852d870ca773041d91f72b25426c95c84805",
    "jquery.dataTables": "github:DefinitelyTyped/DefinitelyTyped/jquery.dataTables/jquery.dataTables.d.ts#b14601af3fb2ad72d5048e94188a569a1838fb9c",
    "moment": "github:DefinitelyTyped/DefinitelyTyped/moment/moment.d.ts#e919f89ae61ae268a19e6796b4c601173e05d1de",
    "es6-promise": "github:DefinitelyTyped/DefinitelyTyped/es6-promise/es6-promise.d.ts#71c9d2336c0c802f89d530e07563e00b9ac07792",
    "lodash": "github:DefinitelyTyped/DefinitelyTyped/lodash/lodash.d.ts#c9061f52fff9e1797042ec1b2c91eef67450ce6b",
    "dropzone": "github:DefinitelyTyped/DefinitelyTyped/dropzone/dropzone.d.ts#47d3b90d02cd2e80b534e7f0c66e1873f4f3424c"
  }
}
