{
	"document": {
		"versionXSDquestion": "10.16.3",
		"question": {
			"questionID": "1",
			"questionIDHistory": [
				"1"
			],
			"meetingType": "",
			"meetingFullName": "Совместное совещание Москомархитектуры и Москомстройинвеста",
			"meetingShortName": "СС МКА",
			"questionConsider": {
				"address": "ул. Новослободская, вл. 26, стр. 3",
				"prefect": "ЦАО",
				"district": "Тверской",
				"passDate": "2014-04-03T00:00:00.000Z",
				"cadastralNumber": "77:01:0003055:56",
				"consideration": "Принято к рассмотрению",
				"question": "Об оформлении ГПЗУ",
				"questionStatus": true,
				"questionCategory": "ГПЗУ / Об оформлении ГПЗУ",
				"basis": {
					"basisType": "Заявление",
					"number": "001-ГПЗУ-3667/2015",
					"date": "2016-11-14T00:00:00.000Z",
					"note": ""
				},
				"responsiblePrepare": {
					"departmentPrepareFull": "Управление обеспечения ГЗК",
					"departmentPrepareShort": "",
					"departmentPrepareCode": "",
					"contractorPrepare": "",
					"contractorPrepareFIO": "Маслова Ирина Александровна",
					"contractorPreparePhone": ""
				},
				"customer": "ООО Техноинвест",
				"rightHolder": "г. Москва",
				"planDate": "07.10.2016",
				"meetingDate": "07.10.2016",
				"meetingNumber": "45",
				"itemNumber": "21",
				"gpzu": "RU77003054-0300943",
				"speaker": {
					"FIOFull": "Маслова Ирина Александровна"
				},
				"cospeaker": [
					{
						"FIOFull": "Маслова Ирина Александровна1"
					},
					{
						"FIOFull": "Маслова Ирина Александровна2"
					},
					{
						"FIOFull": "Маслова Ирина Александровна3"
					}
				],
				"decisionDraft": "Какое-то решение",
				"decisionType": "Согласиться с действующим ГПЗУ",
				"decisionText": "О пересмотре Градостроительного плана земельного участка по адресу: Лухмановская ул. вл. 3 (ВАО, Косино-Ухтомский) <br>1. Согласиться с переоформлением Градостроительного плана земельного участка (Кад. номер: 77:03:0010008:1050), предусмотрев: <br>Разрешенное использование земельного участка: <br>Основные виды разрешенного использования земельного участка: <br>- Бытовое обслуживание (3.3); <br>- Магазины (4.4); <br>- Общественное питание (4.6); <br>- Развлечения (4.8); <br>- Общественное управление (3.8) <br>Максимальный процент застройки в границах земельного участка – по существующему положению <br>Предельное количество этажей или предельная высота зданий, строений, сооружений – в габаритах существующих зданий, строений, сооружений <br>Иные показатели: <br>Общая площадь объекта – 765 кв.м. <br>2.Княжевской Ю.В. <br>2.1.в срок до обеспечить оформление и выдачу градостроительного плана земельного участка правообладателю. <br>2.2.Аннулировать ранее выданный градостроительный план земельного участка №RU77-139000-000596, утвержденный приказом Комитета по архитектуре и градостроительству города Москвы от 20.11.2009 № 513. <br>2.3.Отменить АРИ № А-5792/03 от 22.05.2008 г. <br>3.Направить рассмотрение вопроса на РГ ГЗК г. Москвы.",
				"presentationPrepare": {
					"FIOFull": "Иванов Иван Иванович"
				},
				"materialsChecked": true,
				"materials": [
					{
						"idFile": "1",
						"nameFile": "RU77-106000-018827-Справка.docx",
						"sizeFile": "340 Кб",
						"dateFile": "14.11.2016",
						"typeFile": "Справка"
					},
					{
						"idFile": "2",
						"nameFile": "RU77-106000-018827-Презентация.ppt",
						"sizeFile": "340 Кб",
						"dateFile": "14.11.2016",
						"typeFile": "Презентация"
					},
					{
						"idFile": "2",
						"nameFile": "RU77-106000-018827-Чертеж.dpf",
						"sizeFile": "340 Кб",
						"dateFile": "14.11.2016",
						"typeFile": "Чертеж"
					}
				]
			},
			"comments": [
				{
					"date": "07.10.2016",
					"author": {
						"organization": "Москомстройинвест",
						"FIOFull": "Тимофеев Константин Петрович"
					},
					"comment": "Максимальный процент застройки в границах земельного участка – по существующему положению. Предельное количество этажей или предельная высота зданий, строений, сооружений – в габаритах существующих зданий, строений, сооружений."
				},
				{
					"date": "07.10.2016",
					"author": {
						"organization": "Префектура ЦАО",
						"FIOFull": "Иванов Алексей Михайлович"
					},
					"comment": "Согласовано"
				}
			],
			"questionRG": {
				"materialsSent": "",
				"materials": [
					{
						"materialType": "",
						"contractorNote": {
							
						},
						"contractorPresentation": {
							
						},
						"materialsFIO": "",
						"accountName": "",
						"document": {
							
						},
						"approved": false,
						"approvedDate": false,
						"approvedCancelDate": false,
						"remark": [
							{
								
							}
						]
					}
				]
			}
		}
	}
}